/*
WARNING: Do NOT edit the input and output ports in this file in a text
editor if you plan to continue editing the block that represents it in
the Block Editor! File corruption is VERY likely to occur.
*/
/*
Copyright (C) 2023  Intel Corporation. All rights reserved.
Your use of Intel Corporation's design tools, logic functions 
and other software and tools, and any partner logic 
functions, and any output files from any of the foregoing 
(including device programming or simulation files), and any 
associated documentation or information are expressly subject 
to the terms and conditions of the Intel Program License 
Subscription Agreement, the Intel Quartus Prime License Agreement,
the Intel FPGA IP License Agreement, or other applicable license
agreement, including, without limitation, that your use is for
the sole purpose of programming logic devices manufactured by
Intel and sold by Intel or its authorized distributors.  Please
refer to the applicable agreement for further details, at
https://fpgasoftware.intel.com/eula.
*/
(header "graphic" (version "1.4"))
(pin
	(input)
	(rect -232 248 -64 264)
	(text "INPUT" (rect 125 0 153 10)(font "Arial" (font_size 6)))
	(text "FRQ0" (rect 5 0 32 12)(font "Intel Clear" ))
	(pt 168 8)
	(drawing
		(line (pt 84 12)(pt 109 12))
		(line (pt 84 4)(pt 109 4))
		(line (pt 113 8)(pt 168 8))
		(line (pt 84 12)(pt 84 4))
		(line (pt 109 4)(pt 113 8))
		(line (pt 109 12)(pt 113 8))
	)
	(text "VCC" (rect 128 7 148 17)(font "Arial" (font_size 6)))
)
(pin
	(input)
	(rect -232 264 -64 280)
	(text "INPUT" (rect 125 0 153 10)(font "Arial" (font_size 6)))
	(text "FRQ1" (rect 5 0 32 12)(font "Intel Clear" ))
	(pt 168 8)
	(drawing
		(line (pt 84 12)(pt 109 12))
		(line (pt 84 4)(pt 109 4))
		(line (pt 113 8)(pt 168 8))
		(line (pt 84 12)(pt 84 4))
		(line (pt 109 4)(pt 113 8))
		(line (pt 109 12)(pt 113 8))
	)
	(text "VCC" (rect 128 7 148 17)(font "Arial" (font_size 6)))
)
(pin
	(output)
	(rect 1864 168 2040 184)
	(text "OUTPUT" (rect 1 0 39 10)(font "Arial" (font_size 6)))
	(text "PHASE[31..0]" (rect 90 0 154 12)(font "Intel Clear" ))
	(pt 0 8)
	(drawing
		(line (pt 0 8)(pt 52 8))
		(line (pt 52 4)(pt 78 4))
		(line (pt 52 12)(pt 78 12))
		(line (pt 52 12)(pt 52 4))
		(line (pt 78 4)(pt 82 8))
		(line (pt 82 8)(pt 78 12))
		(line (pt 78 12)(pt 82 8))
	)
)
(pin
	(output)
	(rect 1552 40 1728 56)
	(text "OUTPUT" (rect 1 0 39 10)(font "Arial" (font_size 6)))
	(text "RESET" (rect 90 0 123 12)(font "Intel Clear" ))
	(pt 0 8)
	(drawing
		(line (pt 0 8)(pt 52 8))
		(line (pt 52 4)(pt 78 4))
		(line (pt 52 12)(pt 78 12))
		(line (pt 52 12)(pt 52 4))
		(line (pt 78 4)(pt 82 8))
		(line (pt 82 8)(pt 78 12))
		(line (pt 78 12)(pt 82 8))
	)
)
(symbol
	(rect 832 208 864 240)
	(text "GND" (rect 6 8 16 30)(font "Arial" (font_size 6))(vertical))
	(text "inst11" (rect -1 3 11 33)(font "Intel Clear" )(vertical)(invisible))
	(port
		(pt 32 16)
		(output)
		(text "1" (rect 18 0 25 11)(font "Courier New" (bold))(invisible))
		(text "1" (rect 21 18 32 25)(font "Courier New" (bold))(vertical)(invisible))
		(line (pt 24 16)(pt 32 16))
	)
	(drawing
		(line (pt 24 8)(pt 16 16))
		(line (pt 16 16)(pt 24 24))
		(line (pt 24 8)(pt 24 24))
	)
	(rotate270)
)
(symbol
	(rect 232 240 296 288)
	(text "XNOR" (rect 1 0 29 10)(font "Arial" (font_size 6)))
	(text "inst10" (rect 3 37 33 49)(font "Intel Clear" ))
	(port
		(pt 0 16)
		(input)
		(text "IN1" (rect 2 8 22 19)(font "Courier New" (bold))(invisible))
		(text "IN1" (rect 2 8 22 19)(font "Courier New" (bold))(invisible))
		(line (pt 0 16)(pt 11 16))
	)
	(port
		(pt 0 32)
		(input)
		(text "IN2" (rect 2 23 22 34)(font "Courier New" (bold))(invisible))
		(text "IN2" (rect 2 23 22 34)(font "Courier New" (bold))(invisible))
		(line (pt 0 32)(pt 11 32))
	)
	(port
		(pt 64 24)
		(output)
		(text "OUT" (rect 48 15 68 26)(font "Courier New" (bold))(invisible))
		(text "OUT" (rect 48 15 68 26)(font "Courier New" (bold))(invisible))
		(line (pt 56 24)(pt 64 24))
	)
	(drawing
		(line (pt 14 13)(pt 25 13))
		(line (pt 14 36)(pt 25 36))
		(arc (pt 7 29)(pt 7 19)(rect -14 8 19 41))
		(arc (pt 49 24)(pt 25 13)(rect -6 13 57 76))
		(arc (pt 2 29)(pt 2 19)(rect -19 8 14 41))
		(arc (pt 25 35)(pt 49 24)(rect -6 -27 57 36))
		(circle (rect 48 20 56 28))
	)
)
(symbol
	(rect 1552 144 1792 256)
	(text "BSC" (rect 5 0 27 12)(font "Arial" ))
	(text "inst" (rect 8 96 28 108)(font "Arial" ))
	(port
		(pt 0 32)
		(input)
		(text "CLK" (rect 0 0 22 12)(font "Arial" ))
		(text "CLK" (rect 21 27 43 39)(font "Arial" ))
		(line (pt 0 32)(pt 16 32))
	)
	(port
		(pt 0 48)
		(input)
		(text "BITSTR[(nbs-1)..0]" (rect 0 0 97 12)(font "Arial" ))
		(text "BITSTR[(nbs-1)..0]" (rect 21 43 118 55)(font "Arial" ))
		(line (pt 0 48)(pt 16 48)(line_width 3))
	)
	(port
		(pt 0 64)
		(input)
		(text "RST" (rect 0 0 21 12)(font "Arial" ))
		(text "RST" (rect 21 59 42 71)(font "Arial" ))
		(line (pt 0 64)(pt 16 64))
	)
	(port
		(pt 240 32)
		(output)
		(text "ADD[(nba-1)..0]" (rect 0 0 84 12)(font "Arial" ))
		(text "ADD[(nba-1)..0]" (rect 148 27 232 39)(font "Arial" ))
		(line (pt 240 32)(pt 224 32)(line_width 3))
	)
	(parameter
		"NBS"
		"32"
		""
		(type "PARAMETER_SIGNED_DEC")	)
	(parameter
		"NBA"
		"32"
		""
		(type "PARAMETER_SIGNED_DEC")	)
	(drawing
		(rectangle (rect 16 16 224 96))
	)
	(annotation_block (parameter)(rect 1552 88 1728 136))
)
(symbol
	(rect 680 80 840 160)
	(text "PROPDPATT" (rect 5 0 68 12)(font "Arial" ))
	(text "inst1" (rect 8 64 32 76)(font "Intel Clear" ))
	(port
		(pt 160 32)
		(output)
		(text "PATT[(n-1)..0]" (rect 0 0 74 12)(font "Arial" ))
		(text "PATT[(n-1)..0]" (rect 77 27 151 39)(font "Arial" ))
		(line (pt 160 32)(pt 144 32)(line_width 3))
	)
	(parameter
		"N"
		"32"
		""
		(type "PARAMETER_SIGNED_DEC")	)
	(drawing
		(rectangle (rect 16 16 144 64))
	)
	(annotation_block (parameter)(rect 680 40 849 70))
)
(symbol
	(rect 872 176 1072 256)
	(text "PDML" (rect 5 0 35 12)(font "Arial" ))
	(text "inst6" (rect 8 64 32 76)(font "Intel Clear" ))
	(port
		(pt 0 32)
		(input)
		(text "PULS" (rect 0 0 27 12)(font "Arial" ))
		(text "PULS" (rect 21 27 48 39)(font "Arial" ))
		(line (pt 0 32)(pt 16 32))
	)
	(port
		(pt 0 48)
		(input)
		(text "RESET" (rect 0 0 34 12)(font "Arial" ))
		(text "RESET" (rect 21 43 55 55)(font "Arial" ))
		(line (pt 0 48)(pt 16 48))
	)
	(port
		(pt 200 32)
		(output)
		(text "PROP[(n-1)..0]" (rect 0 0 76 12)(font "Arial" ))
		(text "PROP[(n-1)..0]" (rect 115 27 191 39)(font "Arial" ))
		(line (pt 200 32)(pt 184 32)(line_width 3))
	)
	(parameter
		"N"
		"32"
		""
		(type "PARAMETER_SIGNED_DEC")	)
	(drawing
		(rectangle (rect 16 16 184 64))
	)
	(annotation_block (parameter)(rect 872 136 1041 166))
)
(symbol
	(rect 1160 160 1376 240)
	(text "PDRCL" (rect 5 0 40 12)(font "Arial" ))
	(text "inst5" (rect 8 64 35 76)(font "Arial" ))
	(port
		(pt 0 32)
		(input)
		(text "REF[(n-1)..0]" (rect 0 0 68 12)(font "Arial" ))
		(text "REF[(n-1)..0]" (rect 21 27 89 39)(font "Arial" ))
		(line (pt 0 32)(pt 16 32)(line_width 3))
	)
	(port
		(pt 0 48)
		(input)
		(text "MEA[(n-1)..0]" (rect 0 0 70 12)(font "Arial" ))
		(text "MEA[(n-1)..0]" (rect 21 43 91 55)(font "Arial" ))
		(line (pt 0 48)(pt 16 48)(line_width 3))
	)
	(port
		(pt 216 32)
		(output)
		(text "PROP[(n-1)..0]" (rect 0 0 76 12)(font "Arial" ))
		(text "PROP[(n-1)..0]" (rect 131 27 207 39)(font "Arial" ))
		(line (pt 216 32)(pt 200 32)(line_width 3))
	)
	(parameter
		"N"
		"32"
		""
		(type "PARAMETER_SIGNED_DEC")	)
	(drawing
		(rectangle (rect 16 16 200 64))
	)
	(annotation_block (parameter)(rect 1160 120 1329 150))
)
(symbol
	(rect 960 16 1120 96)
	(text "NDIV" (rect 5 0 33 12)(font "Arial" ))
	(text "inst7" (rect 8 64 32 76)(font "Intel Clear" ))
	(port
		(pt 0 32)
		(input)
		(text "CLK" (rect 0 0 22 12)(font "Arial" ))
		(text "CLK" (rect 21 27 43 39)(font "Arial" ))
		(line (pt 0 32)(pt 16 32))
	)
	(port
		(pt 160 32)
		(output)
		(text "DIVCLK" (rect 0 0 40 12)(font "Arial" ))
		(text "DIVCLK" (rect 106 27 146 39)(font "Arial" ))
		(line (pt 160 32)(pt 144 32))
	)
	(parameter
		"DIVRAT"
		"5000"
		""
		(type "PARAMETER_SIGNED_DEC")	)
	(drawing
		(rectangle (rect 16 16 144 64))
	)
	(annotation_block (parameter)(rect 960 -24 1129 6))
)
(connector
	(pt 1112 192)
	(pt 1160 192)
	(bus)
)
(connector
	(pt 1072 208)
	(pt 1160 208)
	(bus)
)
(connector
	(pt 1112 192)
	(pt 1112 112)
	(bus)
)
(connector
	(pt 840 112)
	(pt 1112 112)
	(bus)
)
(connector
	(pt 872 224)
	(pt 864 224)
)
(connector
	(pt 392 48)
	(pt 392 344)
)
(connector
	(pt 448 208)
	(pt 872 208)
)
(connector
	(pt 448 208)
	(pt 448 264)
)
(connector
	(pt 296 264)
	(pt 448 264)
)
(connector
	(pt -56 48)
	(pt -56 256)
)
(connector
	(pt -56 48)
	(pt 392 48)
)
(connector
	(pt 392 48)
	(pt 960 48)
)
(connector
	(pt 392 344)
	(pt 560 344)
)
(connector
	(pt 560 344)
	(pt 560 408)
)
(connector
	(pt -64 256)
	(pt -56 256)
)
(connector
	(pt -56 256)
	(pt 232 256)
)
(connector
	(pt 560 408)
	(pt 1496 408)
)
(connector
	(pt 1864 176)
	(pt 1792 176)
	(bus)
)
(connector
	(pt 1496 408)
	(pt 1496 176)
)
(connector
	(pt 1496 176)
	(pt 1552 176)
)
(connector
	(pt 1376 192)
	(pt 1552 192)
	(bus)
)
(connector
	(pt 1448 48)
	(pt 1448 208)
)
(connector
	(pt 1448 208)
	(pt 1552 208)
)
(connector
	(pt 1120 48)
	(pt 1448 48)
)
(connector
	(pt 1448 48)
	(pt 1552 48)
)
(connector
	(pt -64 272)
	(pt 232 272)
)
(junction (pt 1448 48))
(junction (pt 392 48))
(junction (pt -56 256))
